\relax 
\providecommand\hyper@newdestlabel[2]{}
\catcode `:\active 
\catcode `;\active 
\catcode `!\active 
\catcode `?\active 
\providecommand\HyperFirstAtBeginDocument{\AtBeginDocument}
\HyperFirstAtBeginDocument{\ifx\hyper@anchor\@undefined
\global\let\oldcontentsline\contentsline
\gdef\contentsline#1#2#3#4{\oldcontentsline{#1}{#2}{#3}}
\global\let\oldnewlabel\newlabel
\gdef\newlabel#1#2{\newlabelxx{#1}#2}
\gdef\newlabelxx#1#2#3#4#5#6{\oldnewlabel{#1}{{#2}{#3}}}
\AtEndDocument{\ifx\hyper@anchor\@undefined
\let\contentsline\oldcontentsline
\let\newlabel\oldnewlabel
\fi}
\fi}
\global\let\hyper@last\relax 
\gdef\HyperFirstAtBeginDocument#1{#1}
\providecommand\HyField@AuxAddToFields[1]{}
\providecommand\HyField@AuxAddToCoFields[2]{}
\select@language{french}
\@writefile{toc}{\select@language{french}}
\@writefile{lof}{\select@language{french}}
\@writefile{lot}{\select@language{french}}
\@writefile{@@@}{\chapterbegin }
\@writefile{toc}{\contentsline {chapter}{R\IeC {\'e}sum\IeC {\'e}}{iii}{chapter*.1}}
\@writefile{@@@}{\chapterbegin }
\@writefile{toc}{\contentsline {chapter}{Abstract}{iv}{chapter*.2}}
\@writefile{@@@}{\chapterbegin }
\@writefile{@@@}{\chapterbegin }
\@writefile{toc}{\contentsline {chapter}{Liste des tableaux}{xi}{chapter*.4}}
\citation{statista}
\@writefile{@@@}{\chapterbegin }
\@writefile{toc}{\contentsline {chapter}{Table des figures}{xiv}{chapter*.5}}
\@writefile{@@@}{\chapterbegin }
\@writefile{toc}{\contentsline {chapter}{Abr\IeC {\'e}viations}{xvi}{chapter*.6}}
\citation{jamieson_2015}
\citation{jdn_2018}
\@writefile{@@@}{\chapterbegin }
\@writefile{toc}{\contentsline {chapter}{INTRODUCTION GENERALE}{1}{chapter*.7}}
\citation{french_muslim}
\newlabel{sec:wilab}{{}{2}{Présentation de l'organisme d'accueil}{section*.9}{}}
\@writefile{lof}{\contentsline {figure}{\numberline {1}{\ignorespaces Le logo de l'agence Wilab}}{2}{figure.0.0.1}}
\pp@pagectr{footnote}{1}{19}{2}
\pp@pagectr{footnote}{2}{23}{6}
\@writefile{toc}{\contentsline {part}{I\hspace  {1em}SYNTHESE BIBLIOGRAPHIQUE}{6}{part.1}}
\@writefile{lof}{\contentsline {xpart}{SYNTHESE BIBLIOGRAPHIQUE}{7}{part.1}}
\@writefile{lot}{\contentsline {xpart}{SYNTHESE BIBLIOGRAPHIQUE}{7}{part.1}}
\@writefile{toc}{\contentsline {xpart}{SYNTHESE BIBLIOGRAPHIQUE}{7}{part.1}}
\@writefile{@@@}{\chapterbegin }
\citation{inee}
\pp@pagectr{footnote}{3}{25}{8}
\@writefile{toc}{\contentsline {chapter}{\numberline {1}G\IeC {\'e}n\IeC {\'e}ralit\IeC {\'e} sur le commerce \IeC {\'e}lectronique}{8}{chapter.1.1}}
\@writefile{lof}{\addvspace {10\p@ }}
\@writefile{lot}{\addvspace {10\p@ }}
\@writefile{lof}{\contentsline {xchapter}{G\IeC {\'e}n\IeC {\'e}ralit\IeC {\'e} sur le commerce \IeC {\'e}lectronique}{8}{chapter.1.1}}
\@writefile{lot}{\contentsline {xchapter}{G\IeC {\'e}n\IeC {\'e}ralit\IeC {\'e} sur le commerce \IeC {\'e}lectronique}{8}{chapter.1.1}}
\citation{def_1}
\citation{def_2}
\citation{def_3}
\citation{def_4}
\@writefile{toc}{\contentsline {section}{\numberline {1.1}Commerce \IeC {\'E}lectronique}{9}{section.1.1.1}}
\@writefile{toc}{\contentsline {subsection}{\numberline {1.1.1}Vari\IeC {\'e}t\IeC {\'e} des d\IeC {\'e}finitions}{9}{subsection.1.1.1.1}}
\@writefile{toc}{\contentsline {subsection}{\numberline {1.1.2}Synth\IeC {\`e}se}{9}{subsection.1.1.1.2}}
\citation{Issac}
\citation{Issac}
\citation{Issac}
\@writefile{toc}{\contentsline {section}{\numberline {1.2}Typologie de l'e-commerce}{10}{section.1.1.2}}
\@writefile{toc}{\contentsline {subsection}{\numberline {1.2.1}Governmenet to Business}{10}{subsection.1.1.2.1}}
\@writefile{toc}{\contentsline {subsection}{\numberline {1.2.2}Governmenet to Customer}{10}{subsection.1.1.2.2}}
\citation{Issac}
\citation{Issac}
\citation{Issac}
\citation{Issac}
\@writefile{toc}{\contentsline {subsection}{\numberline {1.2.3}Business to Customer}{11}{subsection.1.1.2.3}}
\@writefile{toc}{\contentsline {subsection}{\numberline {1.2.4}Business to Business}{11}{subsection.1.1.2.4}}
\@writefile{toc}{\contentsline {subsection}{\numberline {1.2.5}Customer to Customer}{11}{subsection.1.1.2.5}}
\citation{Issac}
\citation{internet}
\@writefile{toc}{\contentsline {section}{\numberline {1.3}\IeC {\'E}volution Historique}{12}{section.1.1.3}}
\@writefile{lof}{\contentsline {figure}{\numberline {1.1}{\ignorespaces \IeC {\'E}volution historique }}{12}{figure.1.1.1}}
\newlabel{fig:method}{{1.1}{12}{Évolution historique}{figure.1.1.1}{}}
\@writefile{toc}{\contentsline {subsection}{\numberline {1.3.1}L'\IeC {\'e}change de donn\IeC {\'e}es informatis\IeC {\'e}es (EDI) }{12}{subsection.1.1.3.1}}
\@writefile{toc}{\contentsline {subsection}{\numberline {1.3.2}l'apparition d'internet}{12}{subsection.1.1.3.2}}
\citation{principauxDate}
\@writefile{toc}{\contentsline {subsection}{\numberline {1.3.3}Les principales dates}{13}{subsection.1.1.3.3}}
\@writefile{lot}{\contentsline {table}{\numberline {1.1}{\ignorespaces L'\IeC {\'e}volution du commerce \IeC {\'e}lectronique}}{13}{table.1.1.1}}
\newlabel{my-label}{{1.1}{13}{L'évolution du commerce électronique}{table.1.1.1}{}}
\citation{Issac}
\citation{Issac}
\citation{Issac}
\citation{Issac}
\citation{facteur}
\citation{facteur}
\@writefile{toc}{\contentsline {section}{\numberline {1.4}Les facteurs du d\IeC {\'e}veloppement de l'e-commerce}{14}{section.1.1.4}}
\@writefile{toc}{\contentsline {subsection}{\numberline {1.4.1}L'environnement technologique}{14}{subsection.1.1.4.1}}
\@writefile{toc}{\contentsline {subsection}{\numberline {1.4.2}L'environnement financier}{14}{subsection.1.1.4.2}}
\citation{ecosystem}
\citation{marrocEcommerce}
\@writefile{toc}{\contentsline {subsection}{\numberline {1.4.3}L'environnement juridique et fiscal}{15}{subsection.1.1.4.3}}
\@writefile{toc}{\contentsline {section}{\numberline {1.5}L'\IeC {\'e}cosyst\IeC {\`e}me du commerce \IeC {\'e}lectronique}{15}{section.1.1.5}}
\@writefile{toc}{\contentsline {subsection}{\numberline {1.5.1}Le Processus du commerce \IeC {\'e}lectronique}{15}{subsection.1.1.5.1}}
\@writefile{toc}{\contentsline {subsection}{\numberline {1.5.2}les intervenants du processus}{16}{subsection.1.1.5.2}}
\citation{boutique}
\citation{desinter}
\pp@pagectr{footnote}{4}{34}{17}
\pp@pagectr{footnote}{5}{34}{17}
\pp@pagectr{footnote}{6}{34}{17}
\citation{abondonPanier}
\@writefile{toc}{\contentsline {subsection}{\numberline {1.5.3}Sch\IeC {\'e}ma global du processus}{18}{subsection.1.1.5.3}}
\citation{jdn_pay}
\@writefile{lof}{\contentsline {figure}{\numberline {1.2}{\ignorespaces Processus du commerce \IeC {\'e}lectronique }}{19}{figure.1.1.2}}
\newlabel{fig:schema_global}{{1.2}{19}{Processus du commerce électronique}{figure.1.1.2}{}}
\@writefile{toc}{\contentsline {section}{\numberline {1.6}Le paiement en ligne}{19}{section.1.1.6}}
\citation{carte}
\citation{carte}
\@writefile{toc}{\contentsline {subsection}{\numberline {1.6.1}les moyens de paiements en ligne}{20}{subsection.1.1.6.1}}
\@writefile{toc}{\contentsline {subsubsection}{\numberline {1.6.1.1}paiement par carte bancaire}{20}{subsubsection.1.1.6.1.1}}
\citation{carte}
\citation{pay_meth}
\citation{pay_meth}
\citation{pay_meth}
\@writefile{toc}{\contentsline {subsubsection}{\numberline {1.6.1.2}paiement par virement bancaire en ligne}{21}{subsubsection.1.1.6.1.2}}
\@writefile{toc}{\contentsline {subsubsection}{\numberline {1.6.1.3}eWallet (portefeuilles \IeC {\'e}lectroniques)}{21}{subsubsection.1.1.6.1.3}}
\@writefile{toc}{\contentsline {subsubsection}{\numberline {1.6.1.4}Paiements par pr\IeC {\'e}l\IeC {\`e}vement automatique}{21}{subsubsection.1.1.6.1.4}}
\citation{pay_meth}
\citation{paiement}
\@writefile{toc}{\contentsline {subsubsection}{\numberline {1.6.1.5}Paiements crypto-monnaie}{22}{subsubsection.1.1.6.1.5}}
\@writefile{toc}{\contentsline {subsection}{\numberline {1.6.2}le choix du moyen de paiements}{22}{subsection.1.1.6.2}}
\citation{pay}
\@writefile{lof}{\contentsline {figure}{\numberline {1.3}{\ignorespaces Les instruments de paiement en ligne }}{23}{figure.1.1.3}}
\newlabel{fig:method}{{1.3}{23}{Les instruments de paiement en ligne}{figure.1.1.3}{}}
\pp@pagectr{footnote}{7}{40}{23}
\citation{pay}
\citation{qui}
\citation{globalEcommerce}
\newlabel{choix_paiement}{{1.6.2}{24}{le choix du moyen de paiements}{subsection.1.1.6.2}{}}
\@writefile{toc}{\contentsline {section}{\numberline {1.7}Le march\IeC {\'e} mondial}{24}{section.1.1.7}}
\pp@pagectr{footnote}{8}{41}{24}
\citation{statista}
\pp@pagectr{footnote}{9}{42}{25}
\@writefile{lof}{\contentsline {figure}{\numberline {1.4}{\ignorespaces Evolution du march\IeC {\'e} mondial du e-commerce \cite  {statista} }}{25}{figure.1.1.4}}
\newlabel{fig:statista}{{1.4}{25}{Evolution du marché mondial du e-commerce \cite {statista}}{figure.1.1.4}{}}
\citation{secu}
\pp@pagectr{footnote}{10}{44}{27}
\@writefile{toc}{\contentsline {chapter}{\numberline {2}La s\IeC {\'e}curit\IeC {\'e} des solutions E-commerce}{27}{chapter.1.2}}
\@writefile{lof}{\addvspace {10\p@ }}
\@writefile{lot}{\addvspace {10\p@ }}
\@writefile{lof}{\contentsline {xchapter}{La s\IeC {\'e}curit\IeC {\'e} des solutions E-commerce}{27}{chapter.1.2}}
\@writefile{lot}{\contentsline {xchapter}{La s\IeC {\'e}curit\IeC {\'e} des solutions E-commerce}{27}{chapter.1.2}}
\citation{moz,secu}
\citation{Availability}
\citation{moz,secu}
\citation{Availability,secu}
\@writefile{toc}{\contentsline {section}{\numberline {2.1}Exigences fondamentales}{28}{section.1.2.1}}
\@writefile{toc}{\contentsline {subsection}{\numberline {2.1.1}La disponibilit\IeC {\'e}}{28}{subsection.1.2.1.1}}
\@writefile{toc}{\contentsline {subsection}{\numberline {2.1.2}La Confidentialit\IeC {\'e}}{28}{subsection.1.2.1.2}}
\citation{moz,secu}
\citation{Availability,secu}
\citation{Nonrep}
\pp@pagectr{footnote}{11}{46}{29}
\@writefile{toc}{\contentsline {subsection}{\numberline {2.1.3}L'int\IeC {\'e}grit\IeC {\'e}}{29}{subsection.1.2.1.3}}
\@writefile{toc}{\contentsline {subsection}{\numberline {2.1.4}la non-r\IeC {\'e}pudiation}{29}{subsection.1.2.1.4}}
\citation{larousse}
\citation{dos}
\pp@pagectr{footnote}{12}{47}{30}
\@writefile{toc}{\contentsline {section}{\numberline {2.2}\IeC {\'E}tude des menaces et des attaques}{30}{section.1.2.2}}
\@writefile{toc}{\contentsline {subsection}{\numberline {2.2.1}Attaque par d\IeC {\'e}ni de service}{30}{subsection.1.2.2.1}}
\citation{rejeu}
\citation{secu}
\citation{secu}
\@writefile{toc}{\contentsline {subsection}{\numberline {2.2.2}Attaque par rejeu}{31}{subsection.1.2.2.2}}
\@writefile{toc}{\contentsline {subsection}{\numberline {2.2.3}Attaque par manipulation de donn\IeC {\'e}es}{31}{subsection.1.2.2.3}}
\@writefile{toc}{\contentsline {subsection}{\numberline {2.2.4}Attaque par d\IeC {\'e}tournement de protocoles}{31}{subsection.1.2.2.4}}
\pp@pagectr{footnote}{13}{48}{31}
\citation{sqlInjection}
\citation{secu}
\@writefile{toc}{\contentsline {subsection}{\numberline {2.2.5}Attaques sur les bases de donn\IeC {\'e}es}{32}{subsection.1.2.2.5}}
\@writefile{toc}{\contentsline {section}{\numberline {2.3}\IeC {\'E}tablissement d'une politique de s\IeC {\'e}curit\IeC {\'e}}{32}{section.1.2.3}}
\citation{secu}
\citation{secu}
\@writefile{toc}{\contentsline {subsection}{\numberline {2.3.1}Protection au niveau physique}{33}{subsection.1.2.3.1}}
\@writefile{toc}{\contentsline {subsection}{\numberline {2.3.2}Protection au niveau du serveur}{33}{subsection.1.2.3.2}}
\@writefile{toc}{\contentsline {subsection}{\numberline {2.3.3}Protection au niveau du r\IeC {\'e}seau}{33}{subsection.1.2.3.3}}
\@writefile{toc}{\contentsline {subsection}{\numberline {2.3.4} Protection au niveau de l\IeC {\textquoteright }application}{33}{subsection.1.2.3.4}}
\citation{ssl}
\@writefile{toc}{\contentsline {subsection}{\numberline {2.3.5} Secure Sockets Layer (SSL)}{34}{subsection.1.2.3.5}}
\@writefile{lof}{\contentsline {figure}{\numberline {2.1}{\ignorespaces Processus de r\IeC {\'e}cup\IeC {\'e}ration d'une page web via le protocole https}}{35}{figure.1.2.1}}
\newlabel{fig:ssl}{{2.1}{35}{Processus de récupération d'une page web via le protocole https}{figure.1.2.1}{}}
\citation{sql_inject}
\@writefile{toc}{\contentsline {subsection}{\numberline {2.3.6}3D-Secure}{36}{subsection.1.2.3.6}}
\@writefile{toc}{\contentsline {subsection}{\numberline {2.3.7}Protection contre l\IeC {\textquoteright }Injection de SQL}{36}{subsection.1.2.3.7}}
\pp@pagectr{footnote}{14}{53}{36}
\pp@pagectr{footnote}{15}{55}{38}
\@writefile{toc}{\contentsline {part}{II\hspace  {1em}ETUDE CONCEPTUELLE}{38}{part.2}}
\@writefile{lof}{\contentsline {xpart}{ETUDE CONCEPTUELLE}{39}{part.2}}
\@writefile{lot}{\contentsline {xpart}{ETUDE CONCEPTUELLE}{39}{part.2}}
\@writefile{toc}{\contentsline {xpart}{ETUDE CONCEPTUELLE}{39}{part.2}}
\@writefile{@@@}{\chapterbegin }
\pp@pagectr{footnote}{16}{57}{40}
\@writefile{toc}{\contentsline {chapter}{\numberline {1}Description g\IeC {\'e}n\IeC {\'e}rale de la solution}{40}{chapter.2.1}}
\@writefile{lof}{\addvspace {10\p@ }}
\@writefile{lot}{\addvspace {10\p@ }}
\@writefile{lof}{\contentsline {xchapter}{Description g\IeC {\'e}n\IeC {\'e}rale de la solution}{40}{chapter.2.1}}
\@writefile{lot}{\contentsline {xchapter}{Description g\IeC {\'e}n\IeC {\'e}rale de la solution}{40}{chapter.2.1}}
\@writefile{toc}{\contentsline {section}{\numberline {1.1}Introduction}{40}{section.2.1.1}}
\@writefile{toc}{\contentsline {section}{\numberline {1.2}Description de la solution}{40}{section.2.1.2}}
\@writefile{lof}{\contentsline {figure}{\numberline {1.1}{\ignorespaces D\IeC {\'e}scription g\IeC {\'e}n\IeC {\'e}rale de la solution}}{41}{figure.2.1.1}}
\newlabel{fig:general_description}{{1.1}{41}{Déscription générale de la solution}{figure.2.1.1}{}}
\citation{upmethode}
\citation{brio}
\citation{brio}
\@writefile{toc}{\contentsline {section}{\numberline {1.3}M\IeC {\'e}thodologie de travail}{42}{section.2.1.3}}
\@writefile{toc}{\contentsline {subsection}{\numberline {1.3.1}L'Unified Process UP}{42}{subsection.2.1.3.1}}
\@writefile{toc}{\contentsline {subsection}{\numberline {1.3.2}D\IeC {\'e}marche g\IeC {\'e}n\IeC {\'e}rale}{42}{subsection.2.1.3.2}}
\pp@pagectr{footnote}{17}{59}{42}
\citation{brio}
\@writefile{lof}{\contentsline {figure}{\numberline {1.2}{\ignorespaces D\IeC {\'e}marche g\IeC {\'e}n\IeC {\'e}rale}}{43}{figure.2.1.2}}
\newlabel{fig:demarche}{{1.2}{43}{Démarche générale}{figure.2.1.2}{}}
\citation{bdd}
\citation{bdd}
\@writefile{toc}{\contentsline {section}{\numberline {1.4}Introduction du BDD}{44}{section.2.1.4}}
\@writefile{toc}{\contentsline {subsection}{\numberline {1.4.1}Behavior Driven Development}{44}{subsection.2.1.4.1}}
\pp@pagectr{footnote}{18}{61}{44}
\@writefile{toc}{\contentsline {subsubsection}{\numberline {1.4.1.1}Les user stories}{44}{subsubsection.2.1.4.1.1}}
\@writefile{lot}{\contentsline {table}{\numberline {1.1}{\ignorespaces Formalisme d'expression d'une \textit  {user storie}}}{44}{table.2.1.1}}
\newlabel{my-bdd}{{1.1}{44}{Formalisme d'expression d'une \textit {user storie}}{table.2.1.1}{}}
\citation{bdd}
\@writefile{lot}{\contentsline {table}{\numberline {1.2}{\ignorespaces Formalisme d'expression des sc\IeC {\'e}narios de test de la \textit  {user storie}}}{45}{table.2.1.2}}
\newlabel{my-bdd}{{1.2}{45}{Formalisme d'expression des scénarios de test de la \textit {user storie}}{table.2.1.2}{}}
\@writefile{toc}{\contentsline {subsection}{\numberline {1.4.2}l'application r\IeC {\'e}elle du BDD}{45}{subsection.2.1.4.2}}
\citation{bdd}
\@writefile{toc}{\contentsline {section}{\numberline {1.5}Conclusion}{46}{section.2.1.5}}
\citation{actor}
\pp@pagectr{footnote}{19}{64}{47}
\@writefile{toc}{\contentsline {chapter}{\numberline {2}RECUEIL DES BESOINS}{47}{chapter.2.2}}
\@writefile{lof}{\addvspace {10\p@ }}
\@writefile{lot}{\addvspace {10\p@ }}
\@writefile{lof}{\contentsline {xchapter}{RECUEIL DES BESOINS}{47}{chapter.2.2}}
\@writefile{lot}{\contentsline {xchapter}{RECUEIL DES BESOINS}{47}{chapter.2.2}}
\@writefile{toc}{\contentsline {section}{\numberline {2.1}Introduction}{47}{section.2.2.1}}
\@writefile{toc}{\contentsline {section}{\numberline {2.2}Identification des acteurs}{47}{section.2.2.2}}
\@writefile{lot}{\contentsline {table}{\numberline {2.1}{\ignorespaces Les acteurs du syst\IeC {\`e}me}}{48}{table.2.2.1}}
\newlabel{my-users}{{2.1}{48}{Les acteurs du système}{table.2.2.1}{}}
\@writefile{toc}{\contentsline {section}{\numberline {2.3}Identification et classification des modules et user stories}{48}{section.2.2.3}}
\@writefile{toc}{\contentsline {subsection}{\numberline {2.3.1}Module du vendeur}{48}{subsection.2.2.3.1}}
\gdef \LT@i {\LT@entry 
    {1}{83.93187pt}\LT@entry 
    {1}{154.66377pt}\LT@entry 
    {1}{154.66377pt}\LT@entry 
    {1}{69.3055pt}}
\@writefile{lot}{\contentsline {table}{\numberline {2.3}{\ignorespaces Les sp\IeC {\'e}cifications fonctionelles li\IeC {\'e}es au module du vendeur}}{50}{table.2.2.3}}
\newlabel{my-spec-vend}{{2.3}{50}{Les spécifications fonctionelles liées au module du vendeur}{table.2.2.3}{}}
\@writefile{lof}{\contentsline {figure}{\numberline {2.1}{\ignorespaces Diagramme de cas d'utilisation des module du vendeur}}{51}{figure.2.2.1}}
\newlabel{fig:dcu_seller}{{2.1}{51}{Diagramme de cas d'utilisation des module du vendeur}{figure.2.2.1}{}}
\@writefile{toc}{\contentsline {subsection}{\numberline {2.3.2}Module de l'acheteur}{51}{subsection.2.2.3.2}}
\gdef \LT@ii {\LT@entry 
    {1}{83.93187pt}\LT@entry 
    {1}{154.66377pt}\LT@entry 
    {1}{154.66377pt}\LT@entry 
    {1}{69.3055pt}}
\@writefile{lot}{\contentsline {table}{\numberline {2.5}{\ignorespaces Les sp\IeC {\'e}cifications fonctionelles li\IeC {\'e}es au module de l'acheteur}}{52}{table.2.2.5}}
\newlabel{my-spec-vend}{{2.5}{52}{Les spécifications fonctionelles liées au module de l'acheteur}{table.2.2.5}{}}
\@writefile{toc}{\contentsline {subsection}{\numberline {2.3.3}Module du livreur}{52}{subsection.2.2.3.3}}
\@writefile{lof}{\contentsline {figure}{\numberline {2.2}{\ignorespaces Diagramme de cas d'utilisation du module de l'acheteur}}{53}{figure.2.2.2}}
\newlabel{fig:dcu_buyer}{{2.2}{53}{Diagramme de cas d'utilisation du module de l'acheteur}{figure.2.2.2}{}}
\gdef \LT@iii {\LT@entry 
    {1}{83.93187pt}\LT@entry 
    {1}{154.66377pt}\LT@entry 
    {1}{154.66377pt}\LT@entry 
    {1}{69.3055pt}}
\@writefile{lot}{\contentsline {table}{\numberline {2.7}{\ignorespaces Les sp\IeC {\'e}cifications fonctionelles li\IeC {\'e}es au module du livreur}}{54}{table.2.2.7}}
\newlabel{my-spec-liv}{{2.7}{54}{Les spécifications fonctionelles liées au module du livreur}{table.2.2.7}{}}
\@writefile{lof}{\contentsline {figure}{\numberline {2.3}{\ignorespaces Diagramme de cas d'utilisation du module du livreur}}{54}{figure.2.2.3}}
\newlabel{fig:dcu_livreur}{{2.3}{54}{Diagramme de cas d'utilisation du module du livreur}{figure.2.2.3}{}}
\@writefile{toc}{\contentsline {subsection}{\numberline {2.3.4}Module de paiement}{54}{subsection.2.2.3.4}}
\gdef \LT@iv {\LT@entry 
    {1}{83.93187pt}\LT@entry 
    {1}{154.66377pt}\LT@entry 
    {1}{154.66377pt}\LT@entry 
    {1}{69.3055pt}}
\@writefile{lot}{\contentsline {table}{\numberline {2.9}{\ignorespaces Les sp\IeC {\'e}cifications fonctionelles li\IeC {\'e}es au module du paiement}}{55}{table.2.2.9}}
\newlabel{my-spec-pay}{{2.9}{55}{Les spécifications fonctionelles liées au module du paiement}{table.2.2.9}{}}
\@writefile{lof}{\contentsline {figure}{\numberline {2.4}{\ignorespaces Diagramme de cas d'utilisation du module paiement}}{55}{figure.2.2.4}}
\newlabel{fig:dcu_livreur}{{2.4}{55}{Diagramme de cas d'utilisation du module paiement}{figure.2.2.4}{}}
\gdef \LT@v {\LT@entry 
    {1}{83.93187pt}\LT@entry 
    {1}{154.66377pt}\LT@entry 
    {1}{154.66377pt}\LT@entry 
    {1}{69.3055pt}}
\@writefile{toc}{\contentsline {subsection}{\numberline {2.3.5}Module de l'administrateur}{56}{subsection.2.2.3.5}}
\@writefile{lot}{\contentsline {table}{\numberline {2.11}{\ignorespaces Les sp\IeC {\'e}cifications fonctionelles li\IeC {\'e}es au module de l'administrateur}}{56}{table.2.2.11}}
\newlabel{my-spec-admin}{{2.11}{56}{Les spécifications fonctionelles liées au module de l'administrateur}{table.2.2.11}{}}
\@writefile{lof}{\contentsline {figure}{\numberline {2.5}{\ignorespaces Diagramme de cas d'utilisation du module de l'administrateur}}{57}{figure.2.2.5}}
\newlabel{fig:dcu_admin}{{2.5}{57}{Diagramme de cas d'utilisation du module de l'administrateur}{figure.2.2.5}{}}
\gdef \LT@vi {\LT@entry 
    {1}{83.93187pt}\LT@entry 
    {1}{97.75826pt}\LT@entry 
    {1}{296.92755pt}}
\gdef \LT@vii {\LT@entry 
    {1}{83.93187pt}\LT@entry 
    {1}{97.75826pt}\LT@entry 
    {1}{296.92755pt}}
\gdef \LT@viii {\LT@entry 
    {1}{83.93187pt}\LT@entry 
    {1}{97.75826pt}\LT@entry 
    {1}{296.92755pt}}
\gdef \LT@ix {\LT@entry 
    {1}{83.93187pt}\LT@entry 
    {1}{97.75826pt}\LT@entry 
    {1}{296.92755pt}}
\@writefile{toc}{\contentsline {subsection}{\numberline {2.3.6}Exemple d'application de la m\IeC {\'e}thode BDD}{58}{subsection.2.2.3.6}}
\@writefile{toc}{\contentsline {subsubsection}{\numberline {2.3.6.1}User Storie}{58}{subsubsection.2.2.3.6.1}}
\@writefile{lot}{\contentsline {table}{\numberline {2.13}{\ignorespaces Exemple d'application du formalisme d'expression BDD}}{58}{table.2.2.13}}
\newlabel{my-spec-bdd}{{2.13}{58}{Exemple d'application du formalisme d'expression BDD}{table.2.2.13}{}}
\@writefile{toc}{\contentsline {subsubsection}{\numberline {2.3.6.2}Sc\IeC {\'e}narios de test}{58}{subsubsection.2.2.3.6.2}}
\@writefile{lot}{\contentsline {table}{\numberline {2.15}{\ignorespaces Exemple d'application du formalisme d'expression du sc\IeC {\'e}nario du test}}{58}{table.2.2.15}}
\newlabel{my-spec-bdd-1}{{2.15}{58}{Exemple d'application du formalisme d'expression du scénario du test}{table.2.2.15}{}}
\@writefile{lot}{\contentsline {table}{\numberline {2.17}{\ignorespaces Exemple d'application du formalisme d'expression du sc\IeC {\'e}nario du test}}{58}{table.2.2.17}}
\newlabel{my-spec-bdd-2}{{2.17}{58}{Exemple d'application du formalisme d'expression du scénario du test}{table.2.2.17}{}}
\@writefile{lot}{\contentsline {table}{\numberline {2.19}{\ignorespaces Exemple d'application du formalisme d'expression du sc\IeC {\'e}nario du test}}{58}{table.2.2.19}}
\newlabel{my-spec-bdd-3}{{2.19}{58}{Exemple d'application du formalisme d'expression du scénario du test}{table.2.2.19}{}}
\@writefile{toc}{\contentsline {subsubsection}{\numberline {2.3.6.3}Automatisation des tests}{59}{subsubsection.2.2.3.6.3}}
\pp@pagectr{footnote}{20}{76}{59}
\newlabel{"feature"}{{2.3.6.3}{59}{}{lstlisting.2.2.-1}{}}
\newlabel{"code"}{{2.3.6.3}{59}{}{lstlisting.2.2.-2}{}}
\@writefile{toc}{\contentsline {section}{\numberline {2.4}Conclusion}{60}{section.2.2.4}}
\citation{soa}
\pp@pagectr{footnote}{21}{78}{61}
\@writefile{toc}{\contentsline {chapter}{\numberline {3}ANALYSE ET CONCEPTION}{61}{chapter.2.3}}
\@writefile{lof}{\addvspace {10\p@ }}
\@writefile{lot}{\addvspace {10\p@ }}
\@writefile{lof}{\contentsline {xchapter}{ANALYSE ET CONCEPTION}{61}{chapter.2.3}}
\@writefile{lot}{\contentsline {xchapter}{ANALYSE ET CONCEPTION}{61}{chapter.2.3}}
\@writefile{toc}{\contentsline {section}{\numberline {3.1}Introduction}{61}{section.2.3.1}}
\@writefile{toc}{\contentsline {section}{\numberline {3.2}Pr\IeC {\'e}sentation de l'architecture de la solution}{61}{section.2.3.2}}
\pp@pagectr{footnote}{22}{78}{61}
\citation{http}
\@writefile{lof}{\contentsline {figure}{\numberline {3.1}{\ignorespaces Architecure de la solution}}{62}{figure.2.3.1}}
\newlabel{fig:method}{{3.1}{62}{Architecure de la solution}{figure.2.3.1}{}}
\pp@pagectr{footnote}{23}{79}{62}
\@writefile{toc}{\contentsline {section}{\numberline {3.3}D\IeC {\'e}coupage en package}{63}{section.2.3.3}}
\@writefile{lot}{\contentsline {table}{\numberline {3.1}{\ignorespaces D\IeC {\'e}coupage du syst\IeC {\`e}me en package}}{63}{table.2.3.1}}
\newlabel{my-packages}{{3.1}{63}{Découpage du système en package}{table.2.3.1}{}}
\@writefile{toc}{\contentsline {subsection}{\numberline {3.3.1}Package gestion du catalogue}{63}{subsection.2.3.3.1}}
\@writefile{toc}{\contentsline {subsubsection}{\numberline {3.3.1.1}Processus d'ajout du produit}{63}{subsubsection.2.3.3.1.1}}
\@writefile{lof}{\contentsline {figure}{\numberline {3.2}{\ignorespaces Diagramme d'activit\IeC {\'e} de l'ajout d'un produit}}{64}{figure.2.3.2}}
\newlabel{fig:dd_ajout_prod}{{3.2}{64}{Diagramme d'activité de l'ajout d'un produit}{figure.2.3.2}{}}
\@writefile{lof}{\contentsline {figure}{\numberline {3.3}{\ignorespaces Diagramme de s\IeC {\'e}quance d'jout d'un produit}}{65}{figure.2.3.3}}
\newlabel{fig:method}{{3.3}{65}{Diagramme de séquance d'jout d'un produit}{figure.2.3.3}{}}
\@writefile{lof}{\contentsline {figure}{\numberline {3.4}{\ignorespaces Diagramme de classe du module gestion de catalogue}}{66}{figure.2.3.4}}
\newlabel{fig:DD_catalogue}{{3.4}{66}{Diagramme de classe du module gestion de catalogue}{figure.2.3.4}{}}
\@writefile{toc}{\contentsline {subsection}{\numberline {3.3.2}Package gestion de restaurant}{67}{subsection.2.3.3.2}}
\@writefile{toc}{\contentsline {subsubsection}{\numberline {3.3.2.1}Cr\IeC {\'e}ation de l'espace restaurant}{67}{subsubsection.2.3.3.2.1}}
\@writefile{lof}{\contentsline {figure}{\numberline {3.5}{\ignorespaces Diagramme d'activit\IeC {\'e} de la cr\IeC {\'e}ation du restaurant}}{67}{figure.2.3.5}}
\newlabel{fig:method}{{3.5}{67}{Diagramme d'activité de la création du restaurant}{figure.2.3.5}{}}
\@writefile{toc}{\contentsline {subsubsection}{\numberline {3.3.2.2}Cr\IeC {\'e}ation d'un emplacement}{67}{subsubsection.2.3.3.2.2}}
\@writefile{lof}{\contentsline {figure}{\numberline {3.6}{\ignorespaces Diagramme d'activit\IeC {\'e} de la cr\IeC {\'e}ation d'un emplacement}}{67}{figure.2.3.6}}
\newlabel{fig:method}{{3.6}{67}{Diagramme d'activité de la création d'un emplacement}{figure.2.3.6}{}}
\@writefile{lof}{\contentsline {figure}{\numberline {3.7}{\ignorespaces Diagramme de classe du module gestion de restaurant}}{68}{figure.2.3.7}}
\newlabel{fig:method}{{3.7}{68}{Diagramme de classe du module gestion de restaurant}{figure.2.3.7}{}}
\@writefile{toc}{\contentsline {subsection}{\numberline {3.3.3}Package gestion des commandes}{69}{subsection.2.3.3.3}}
\@writefile{toc}{\contentsline {subsubsection}{\numberline {3.3.3.1}Passer une commande}{69}{subsubsection.2.3.3.3.1}}
\@writefile{lof}{\contentsline {figure}{\numberline {3.8}{\ignorespaces Diagramme d'activit\IeC {\'e} du passage de la commande}}{69}{figure.2.3.8}}
\newlabel{fig:method}{{3.8}{69}{Diagramme d'activité du passage de la commande}{figure.2.3.8}{}}
\@writefile{lof}{\contentsline {figure}{\numberline {3.9}{\ignorespaces Diagramme d'activit\IeC {\'e} du passage de la commande}}{70}{figure.2.3.9}}
\newlabel{fig:method}{{3.9}{70}{Diagramme d'activité du passage de la commande}{figure.2.3.9}{}}
\@writefile{toc}{\contentsline {subsubsection}{\numberline {3.3.3.2}Traiter une commande}{71}{subsubsection.2.3.3.3.2}}
\@writefile{lof}{\contentsline {figure}{\numberline {3.10}{\ignorespaces Diagramme d'activit\IeC {\'e} du gestion de la commande}}{71}{figure.2.3.10}}
\newlabel{fig:method}{{3.10}{71}{Diagramme d'activité du gestion de la commande}{figure.2.3.10}{}}
\@writefile{lof}{\contentsline {figure}{\numberline {3.11}{\ignorespaces Diagramme de classe du module gestion de commandes}}{72}{figure.2.3.11}}
\newlabel{fig:method}{{3.11}{72}{Diagramme de classe du module gestion de commandes}{figure.2.3.11}{}}
\@writefile{toc}{\contentsline {subsection}{\numberline {3.3.4}Package gestion des utilisateurs}{73}{subsection.2.3.3.4}}
\@writefile{lof}{\contentsline {figure}{\numberline {3.12}{\ignorespaces Diagramme de classe du module gestion des utilisateurs}}{73}{figure.2.3.12}}
\newlabel{fig:method}{{3.12}{73}{Diagramme de classe du module gestion des utilisateurs}{figure.2.3.12}{}}
\@writefile{toc}{\contentsline {subsubsection}{\numberline {3.3.4.1}Ajouter compte employ\IeC {\'e}e}{74}{subsubsection.2.3.3.4.1}}
\@writefile{lof}{\contentsline {figure}{\numberline {3.13}{\ignorespaces Diagramme de s\IeC {\'e}quence de l'ajout employ\IeC {\'e}e}}{74}{figure.2.3.13}}
\newlabel{fig:ajout_employee}{{3.13}{74}{Diagramme de séquence de l'ajout employée}{figure.2.3.13}{}}
\@writefile{toc}{\contentsline {subsection}{\numberline {3.3.5}Package gestion du paiement}{74}{subsection.2.3.3.5}}
\@writefile{lof}{\contentsline {figure}{\numberline {3.14}{\ignorespaces Syst\IeC {\`e}me de paiement sur MenuHalal}}{75}{figure.2.3.14}}
\newlabel{fig:paiement}{{3.14}{75}{Système de paiement sur MenuHalal}{figure.2.3.14}{}}
\@writefile{lof}{\contentsline {figure}{\numberline {3.15}{\ignorespaces Diagramme de classe du module gestion des utilisateurs}}{75}{figure.2.3.15}}
\newlabel{fig:method}{{3.15}{75}{Diagramme de classe du module gestion des utilisateurs}{figure.2.3.15}{}}
\@writefile{toc}{\contentsline {section}{\numberline {3.4}Mod\IeC {\`e}le relationnel de la base de donn\IeC {\'e}es}{76}{section.2.3.4}}
\citation{jwt}
\@writefile{toc}{\contentsline {section}{\numberline {3.5}S\IeC {\'e}curit\IeC {\'e} de la marketplace}{77}{section.2.3.5}}
\@writefile{toc}{\contentsline {subsection}{\numberline {3.5.1}Consommation des services par token}{77}{subsection.2.3.5.1}}
\@writefile{lof}{\contentsline {figure}{\numberline {3.16}{\ignorespaces Consommation du service ajouterProduit par le syst\IeC {\`e}me de token}}{78}{figure.2.3.16}}
\newlabel{fig:jwt}{{3.16}{78}{Consommation du service ajouterProduit par le système de token}{figure.2.3.16}{}}
\@writefile{toc}{\contentsline {subsection}{\numberline {3.5.2}Authentification SSL}{78}{subsection.2.3.5.2}}
\@writefile{lof}{\contentsline {figure}{\numberline {3.17}{\ignorespaces Authentification des utilisateurs \IeC {\`a} l\IeC {\textquoteright }aide du protocole SSL}}{79}{figure.2.3.17}}
\newlabel{fig:ssl}{{3.17}{79}{Authentification des utilisateurs à l’aide du protocole SSL}{figure.2.3.17}{}}
\@writefile{toc}{\contentsline {subsection}{\numberline {3.5.3}Pare-Feu}{79}{subsection.2.3.5.3}}
\@writefile{lof}{\contentsline {figure}{\numberline {3.18}{\ignorespaces Architecture de mise en place du pare-feu}}{80}{figure.2.3.18}}
\newlabel{fig:method}{{3.18}{80}{Architecture de mise en place du pare-feu}{figure.2.3.18}{}}
\@writefile{toc}{\contentsline {section}{\numberline {3.6}Mod\IeC {\`e}le de d\IeC {\'e}ploiement}{80}{section.2.3.6}}
\@writefile{lof}{\contentsline {figure}{\numberline {3.19}{\ignorespaces Diagramme de d\IeC {\'e}poloiement de l'application MenuHalal}}{80}{figure.2.3.19}}
\newlabel{fig:method}{{3.19}{80}{Diagramme de dépoloiement de l'application MenuHalal}{figure.2.3.19}{}}
\@writefile{toc}{\contentsline {section}{\numberline {3.7}Conclusion}{81}{section.2.3.7}}
\citation{javascript}
\pp@pagectr{footnote}{24}{99}{82}
\@writefile{toc}{\contentsline {chapter}{\numberline {4}REALISATION DE LA SOLUTION}{82}{chapter.2.4}}
\@writefile{lof}{\addvspace {10\p@ }}
\@writefile{lot}{\addvspace {10\p@ }}
\@writefile{lof}{\contentsline {xchapter}{REALISATION DE LA SOLUTION}{82}{chapter.2.4}}
\@writefile{lot}{\contentsline {xchapter}{REALISATION DE LA SOLUTION}{82}{chapter.2.4}}
\@writefile{toc}{\contentsline {section}{\numberline {4.1}Introduction}{82}{section.2.4.1}}
\@writefile{toc}{\contentsline {section}{\numberline {4.2}Outils et environnmenet de d\IeC {\'e}veloppement}{82}{section.2.4.2}}
\pp@pagectr{footnote}{25}{99}{82}
\@writefile{toc}{\contentsline {subsection}{\numberline {4.2.1}Environnement de d\IeC {\'e}veloppement}{82}{subsection.2.4.2.1}}
\pp@pagectr{footnote}{26}{100}{83}
\@writefile{toc}{\contentsline {subsection}{\numberline {4.2.2}Outils de d\IeC {\'e}veloppement}{83}{subsection.2.4.2.2}}
\@writefile{lof}{\contentsline {figure}{\numberline {4.1}{\ignorespaces Outils et Environnmenet de d\IeC {\'e}veloppement}}{84}{figure.2.4.1}}
\newlabel{fig:tools}{{4.1}{84}{Outils et Environnmenet de développement}{figure.2.4.1}{}}
\citation{paypalStatista}
\citation{paypalFrance}
\@writefile{toc}{\contentsline {section}{\numberline {4.3}Architecture technique}{85}{section.2.4.3}}
\@writefile{lof}{\contentsline {figure}{\numberline {4.2}{\ignorespaces Architecture de MenuHalal de point de vue technologique}}{85}{figure.2.4.2}}
\newlabel{fig:archi_tech}{{4.2}{85}{Architecture de MenuHalal de point de vue technologique}{figure.2.4.2}{}}
\@writefile{toc}{\contentsline {section}{\numberline {4.4}Int\IeC {\'e}gration de la solution de paiement PayPal}{85}{section.2.4.4}}
\@writefile{toc}{\contentsline {subsection}{\numberline {4.4.1}Processus d'int\IeC {\'e}gration}{86}{subsection.2.4.4.1}}
\@writefile{lof}{\contentsline {figure}{\numberline {4.3}{\ignorespaces Connexion \IeC {\`a} la plateforme \IeC {\guillemotleft } SandBox \IeC {\guillemotright }}}{86}{figure.2.4.3}}
\newlabel{fig:paypal-auth}{{4.3}{86}{Connexion à la plateforme « SandBox »}{figure.2.4.3}{}}
\@writefile{lof}{\contentsline {figure}{\numberline {4.4}{\ignorespaces Tableau de bord de du compte \IeC {\guillemotleft } SandBox \IeC {\guillemotright }}}{87}{figure.2.4.4}}
\newlabel{fig:paypal-auth}{{4.4}{87}{Tableau de bord de du compte « SandBox »}{figure.2.4.4}{}}
\@writefile{lof}{\contentsline {figure}{\numberline {4.5}{\ignorespaces Cr\IeC {\'e}ation des comptes \IeC {\guillemotleft } SandBox \IeC {\guillemotright }}}{87}{figure.2.4.5}}
\newlabel{fig:paypal-auth}{{4.5}{87}{Création des comptes « SandBox »}{figure.2.4.5}{}}
\@writefile{lof}{\contentsline {figure}{\numberline {4.6}{\ignorespaces Acquisition d'une signature API unique chez PayPal}}{88}{figure.2.4.6}}
\newlabel{fig:paypal-install}{{4.6}{88}{Acquisition d'une signature API unique chez PayPal}{figure.2.4.6}{}}
\@writefile{toc}{\contentsline {section}{\numberline {4.5}Configuration de la base de donn\IeC {\'e}es}{88}{section.2.4.5}}
\@writefile{lof}{\contentsline {figure}{\numberline {4.7}{\ignorespaces Connexion \IeC {\`a} la plateforme \IeC {\`a} mLab}}{88}{figure.2.4.7}}
\newlabel{fig:paypal-auth}{{4.7}{88}{Connexion à la plateforme à mLab}{figure.2.4.7}{}}
\@writefile{lof}{\contentsline {figure}{\numberline {4.8}{\ignorespaces Connexion \IeC {\`a} la plateforme \IeC {\`a} mLab}}{89}{figure.2.4.8}}
\newlabel{fig:bdd-auth}{{4.8}{89}{Connexion à la plateforme à mLab}{figure.2.4.8}{}}
\@writefile{lof}{\contentsline {figure}{\numberline {4.9}{\ignorespaces Initialisation de la base de donn\IeC {\'e}es}}{89}{figure.2.4.9}}
\newlabel{fig:bdd_peup}{{4.9}{89}{Initialisation de la base de données}{figure.2.4.9}{}}
\@writefile{toc}{\contentsline {section}{\numberline {4.6}Test de la solution}{90}{section.2.4.6}}
\@writefile{toc}{\contentsline {subsection}{\numberline {4.6.1}Test unitaires}{90}{subsection.2.4.6.1}}
\@writefile{lof}{\contentsline {figure}{\numberline {4.10}{\ignorespaces R\IeC {\'e}sultat d'ex\IeC {\'e}cution des tests unitaires}}{91}{figure.2.4.10}}
\newlabel{fig:tu_result}{{4.10}{91}{Résultat d'exécution des tests unitaires}{figure.2.4.10}{}}
\gdef \LT@x {\LT@entry 
    {1}{83.93187pt}\LT@entry 
    {1}{97.75826pt}\LT@entry 
    {1}{211.56927pt}\LT@entry 
    {1}{40.85274pt}}
\gdef \LT@xi {\LT@entry 
    {1}{83.93187pt}\LT@entry 
    {1}{97.75826pt}\LT@entry 
    {1}{211.56927pt}\LT@entry 
    {1}{40.85274pt}}
\@writefile{toc}{\contentsline {subsection}{\numberline {4.6.2}Test fonctionnels}{92}{subsection.2.4.6.2}}
\@writefile{lot}{\contentsline {table}{\numberline {4.2}{\ignorespaces Test fonctionnel de l'ajout d'un emplacement}}{92}{table.2.4.2}}
\newlabel{my-spec-bdd-1}{{4.2}{92}{Test fonctionnel de l'ajout d'un emplacement}{table.2.4.2}{}}
\@writefile{lot}{\contentsline {table}{\numberline {4.4}{\ignorespaces Test fonctionnel de l'ajout d'un produit}}{92}{table.2.4.4}}
\newlabel{my-spec-bdd-1}{{4.4}{92}{Test fonctionnel de l'ajout d'un produit}{table.2.4.4}{}}
\@writefile{toc}{\contentsline {section}{\numberline {4.7}Pr\IeC {\'e}sentation de l'application}{93}{section.2.4.7}}
\@writefile{toc}{\contentsline {subsection}{\numberline {4.7.1}Application de l'administrateur de la platforme}{93}{subsection.2.4.7.1}}
\@writefile{lof}{\contentsline {figure}{\numberline {4.11}{\ignorespaces creation d'un restaurant}}{93}{figure.2.4.11}}
\newlabel{fig:bdd_peup}{{4.11}{93}{creation d'un restaurant}{figure.2.4.11}{}}
\@writefile{toc}{\contentsline {subsection}{\numberline {4.7.2}la validation de la cr\IeC {\'e}ation d'un restaurant}{94}{subsection.2.4.7.2}}
\@writefile{lof}{\contentsline {figure}{\numberline {4.12}{\ignorespaces Validation de la creation du restaurant}}{94}{figure.2.4.12}}
\newlabel{fig:bdd_peup}{{4.12}{94}{Validation de la creation du restaurant}{figure.2.4.12}{}}
\@writefile{toc}{\contentsline {subsection}{\numberline {4.7.3}l'interface de la page d'accueil du propri\IeC {\'e}taire du restaurant}{94}{subsection.2.4.7.3}}
\@writefile{lof}{\contentsline {figure}{\numberline {4.13}{\ignorespaces page d'accueil de l'application d'administration du restaurant}}{94}{figure.2.4.13}}
\newlabel{fig:accueil_restau}{{4.13}{94}{page d'accueil de l'application d'administration du restaurant}{figure.2.4.13}{}}
\@writefile{toc}{\contentsline {subsection}{\numberline {4.7.4}la cr\IeC {\'e}ation d'un nouveau manager}{95}{subsection.2.4.7.4}}
\@writefile{lof}{\contentsline {figure}{\numberline {4.14}{\ignorespaces Ajout d'un nouveau membre}}{95}{figure.2.4.14}}
\newlabel{fig:ajout_membre}{{4.14}{95}{Ajout d'un nouveau membre}{figure.2.4.14}{}}
\@writefile{toc}{\contentsline {subsection}{\numberline {4.7.5}la cr\IeC {\'e}ation d'un nouvel emplacement}{95}{subsection.2.4.7.5}}
\@writefile{lof}{\contentsline {figure}{\numberline {4.15}{\ignorespaces Ajout d'un nouvel emplacement}}{95}{figure.2.4.15}}
\newlabel{fig:ajout_emplacement}{{4.15}{95}{Ajout d'un nouvel emplacement}{figure.2.4.15}{}}
\@writefile{toc}{\contentsline {subsection}{\numberline {4.7.6}interface d'accueil du front office}{96}{subsection.2.4.7.6}}
\@writefile{lof}{\contentsline {figure}{\numberline {4.16}{\ignorespaces page d'accueil MenuHalal}}{96}{figure.2.4.16}}
\newlabel{fig:ajout_emplacement}{{4.16}{96}{page d'accueil MenuHalal}{figure.2.4.16}{}}
\@writefile{toc}{\contentsline {subsection}{\numberline {4.7.7}Passage de la commande}{96}{subsection.2.4.7.7}}
\@writefile{lof}{\contentsline {figure}{\numberline {4.17}{\ignorespaces Passage de la commande}}{96}{figure.2.4.17}}
\newlabel{fig:passage_cmd}{{4.17}{96}{Passage de la commande}{figure.2.4.17}{}}
\@writefile{toc}{\contentsline {subsection}{\numberline {4.7.8}Gestion de la commande}{97}{subsection.2.4.7.8}}
\@writefile{lof}{\contentsline {figure}{\numberline {4.18}{\ignorespaces Gestion de la commande}}{97}{figure.2.4.18}}
\newlabel{fig:ajout_emplacement}{{4.18}{97}{Gestion de la commande}{figure.2.4.18}{}}
\@writefile{toc}{\contentsline {subsection}{\numberline {4.7.9}Gestion de la commande par le livreur}{97}{subsection.2.4.7.9}}
\@writefile{lof}{\contentsline {figure}{\numberline {4.19}{\ignorespaces Application livreur}}{97}{figure.2.4.19}}
\newlabel{fig:liv}{{4.19}{97}{Application livreur}{figure.2.4.19}{}}
\@writefile{toc}{\contentsline {subsection}{\numberline {4.7.10}Suivi de l'\IeC {\'e}tat de la commande}{98}{subsection.2.4.7.10}}
\@writefile{lof}{\contentsline {figure}{\numberline {4.20}{\ignorespaces Suivi de l'\IeC {\'e}tat de la commande par le client}}{98}{figure.2.4.20}}
\newlabel{fig:suivi_cmd}{{4.20}{98}{Suivi de l'état de la commande par le client}{figure.2.4.20}{}}
\@writefile{toc}{\contentsline {subsection}{\numberline {4.7.11}Consulter transactions}{98}{subsection.2.4.7.11}}
\@writefile{lof}{\contentsline {figure}{\numberline {4.21}{\ignorespaces Consulter transactions}}{98}{figure.2.4.21}}
\newlabel{fig:ajout_emplacement}{{4.21}{98}{Consulter transactions}{figure.2.4.21}{}}
\@writefile{toc}{\contentsline {section}{\numberline {4.8}Conclusion}{99}{section.2.4.8}}
\@writefile{@@@}{\chapterbegin }
\@writefile{toc}{\contentsline {chapter}{CONCLUSION GENERALE}{100}{chapter*.20}}
\bibdata{biblio}
\bibcite{larousse}{{1}{}{{}}{{}}}
\bibcite{dos}{{2}{}{{}}{{}}}
\bibcite{upmethode}{{3}{}{{}}{{}}}
\bibcite{actor}{{4}{}{{}}{{}}}
\bibcite{soa}{{5}{}{{}}{{}}}
\bibcite{pay}{{6}{}{{}}{{}}}
\bibcite{brio}{{7}{}{{}}{{}}}
\bibcite{jwt}{{8}{}{{}}{{}}}
\bibcite{french_muslim}{{9}{}{{}}{{}}}
\bibcite{ssl}{{10}{}{{}}{{}}}
\bibcite{http}{{11}{}{{}}{{}}}
\@writefile{toc}{\contentsline {chapter}{R\IeC {\'e}f\IeC {\'e}rences}{102}{section*.21}}
\@writefile{@@@}{\chapterbegin }
\bibcite{def_4}{{12}{}{{}}{{}}}
\bibcite{paiement}{{13}{}{{}}{{}}}
\bibcite{desinter}{{14}{}{{}}{{}}}
\bibcite{ecosystem}{{15}{}{{}}{{}}}
\bibcite{secu}{{16}{}{{}}{{}}}
\bibcite{rejeu}{{17}{}{{}}{{}}}
\bibcite{def_3}{{18}{}{{}}{{}}}
\bibcite{Issac}{{19}{}{{}}{{}}}
\bibcite{jamieson_2015}{{20}{}{{}}{{}}}
\bibcite{boutique}{{21}{}{{}}{{}}}
\bibcite{qui}{{22}{}{{}}{{}}}
\bibcite{marrocEcommerce}{{23}{}{{}}{{}}}
\bibcite{facteur}{{24}{}{{}}{{}}}
\bibcite{moz}{{25}{}{{}}{{}}}
\bibcite{principauxDate}{{26}{}{{}}{{}}}
\bibcite{abondonPanier}{{27}{}{{}}{{}}}
\bibcite{def_1}{{28}{}{{}}{{}}}
\bibcite{javascript}{{29}{}{{}}{{}}}
\bibcite{sqlInjection}{{30}{}{{}}{{}}}
\bibcite{internet}{{31}{}{{}}{{}}}
\bibcite{paypalFrance}{{32}{}{{}}{{}}}
\bibcite{jdn_2018}{{33}{}{{}}{{}}}
\bibcite{globalEcommerce}{{34}{}{{}}{{}}}
\bibcite{jdn_pay}{{35}{}{{}}{{}}}
\bibcite{Availability}{{36}{}{{}}{{}}}
\bibcite{Nonrep}{{37}{}{{}}{{}}}
\bibcite{sql_inject}{{38}{}{{}}{{}}}
\bibcite{pay_meth}{{39}{}{{}}{{}}}
\bibcite{paypalStatista}{{40}{}{{}}{{}}}
\bibcite{inee}{{41}{}{{}}{{}}}
\bibcite{statista}{{42}{}{{}}{{}}}
\bibcite{carte}{{43}{}{{}}{{}}}
\bibcite{def_2}{{44}{}{{}}{{}}}
\bibcite{bdd}{{45}{}{{}}{{}}}
\bibstyle{plain}
\providecommand\NAT@force@numbers{}\NAT@force@numbers
\global\mtcsecondparttrue
